{
  "_embedded": {
    "invitations": [
      {
        "id": "id2",
        "_embedded": {
          "candidate": {
            "id": "candidateId2",
            "status": "IN_EVALUATION"
          },
          "assessment": {
            "id": "assesmentId2",
            "status": "AUTO_ASSESSMENT_READY",
            "score": {
              "scoredPoints": 12,
              "maxPoints": 39,
              "percentage": 31
            },
            "finishDate": "2021-04-08T22:46:46Z",
            "_embedded": {
              "test": {
                "id": "java1TestId",
                "name": "Software Engineer (Java)"
              }
            }
          }
        }
      }
    ]
  },
  "page": {
    "size": 1,
    "totalElements": 2,
    "totalPages": 2,
    "number": 1
  }
}
