{
  "_embedded": {
    "invitations": [
      {
        "id": "id1",
        "_embedded": {
          "candidate": {
            "id": "candidateId1",
            "firstName": "X",
            "lastName": "Y",
            "status": "IN_EVALUATION",
            "creationDate": "2021-02-08T09:15:37+02:00"
          },
          "assessment": {
            "id": "assesmentId1",
            "status": "AUTO_ASSESSMENT_READY",
            "score": {
              "scoredPoints": 12,
              "maxPoints": 39,
              "percentage": 31
            },
            "creationDate": "2022-04-08T07:15:37Z",
            "startDate": "2022-04-08T21:28:25Z",
            "finishDate": "2022-04-08T22:46:46Z",
            "_embedded": {
              "test": {
                "id": "testIdPython",
                "name": "Software Enginner (Python)"
              }
            }
          }
        }
      }
    ]
  },
  "page": {
    "size": 1,
    "totalElements": 2,
    "totalPages": 2,
    "number": 0
  }
}
